{
  "dockState": {
    "Editor": {
      " a53aabd0-8519-4e60-aba0-1e2f8bd5646c": {
        "active": true,
        "children": ["viewport", " bf9e43cf-ed13-4e8f-b70e-ed9a59968b21"],
        "layout": 1.0,
        "location": 0.0,
        "next": "",
        "opened": true,
        "parent": " container2",
        "prev": "",
        "ratio": 0.88534468412399292
      },
      " bf9e43cf-ed13-4e8f-b70e-ed9a59968b21": {
        "active": true,
        "children": ["stats", "debug"],
        "layout": 2.0,
        "location": 2.0,
        "next": "",
        "opened": true,
        "parent": " a53aabd0-8519-4e60-aba0-1e2f8bd5646c",
        "prev": "",
        "ratio": 0.84457731246948242
      },
      " container2": {
        "active": true,
        "children": ["assets", " a53aabd0-8519-4e60-aba0-1e2f8bd5646c"],
        "layout": 2.0,
        "location": 1.0,
        "next": "",
        "opened": true,
        "parent": " eb482987-8857-42cf-a3bd-3b8059d7d26c",
        "prev": "",
        "ratio": 0.23089665174484253
      },
      " eb482987-8857-42cf-a3bd-3b8059d7d26c": {
        "active": true,
        "children": [" container2", "transform"],
        "layout": 2.0,
        "location": 6.0,
        "next": "",
        "opened": true,
        "parent": "",
        "prev": "",
        "ratio": 0.83926701545715332
      },
      "assets": {
        "active": false,
        "layout": 0.0,
        "location": 1.0,
        "next": "lua console",
        "opened": false,
        "parent": " container2",
        "prev": "",
        "ratio": 0.5
      },
      "debug": {
        "active": true,
        "layout": 0.0,
        "location": 0.0,
        "next": "",
        "opened": true,
        "parent": " bf9e43cf-ed13-4e8f-b70e-ed9a59968b21",
        "prev": "",
        "ratio": 0.5
      },
      "lua console": {
        "active": true,
        "layout": 0.0,
        "location": 5.0,
        "next": "scene explorer",
        "opened": true,
        "parent": " container2",
        "prev": "assets",
        "ratio": 0.5
      },
      "scene explorer": {
        "active": false,
        "layout": 0.0,
        "location": 5.0,
        "next": "",
        "opened": true,
        "parent": " container2",
        "prev": "lua console",
        "ratio": 0.5
      },
      "stats": {
        "active": true,
        "layout": 0.0,
        "location": 1.0,
        "next": "",
        "opened": true,
        "parent": " bf9e43cf-ed13-4e8f-b70e-ed9a59968b21",
        "prev": "",
        "ratio": 0.5
      },
      "transform": {
        "active": true,
        "layout": 0.0,
        "location": 0.0,
        "next": "",
        "opened": true,
        "parent": " eb482987-8857-42cf-a3bd-3b8059d7d26c",
        "prev": "",
        "ratio": 0.5
      },
      "viewport": {
        "active": true,
        "layout": 0.0,
        "location": 3.0,
        "next": "",
        "opened": true,
        "parent": " a53aabd0-8519-4e60-aba0-1e2f8bd5646c",
        "prev": "",
        "ratio": 0.5
      }
    }
  }
}
